<?xml version="1.0" encoding="utf-8"?>
<!-- Generator: Adobe Illustrator 21.0.0, SVG Export Plug-In . SVG Version: 6.00 Build 0)  -->
<svg version="1.1" id="Layer_1" xmlns="http://www.w3.org/2000/svg" xmlns:xlink="http://www.w3.org/1999/xlink" x="0px" y="0px"
	 viewBox="0 0 64 64" style="enable-background:new 0 0 64 64;" xml:space="preserve">
<style type="text/css">
	.st0{clip-path:url(#SVGID_2_);}
	.st1{clip-path:url(#SVGID_4_);}
	.st2{clip-path:url(#SVGID_6_);}
	.st3{clip-path:url(#SVGID_8_);}
	.st4{clip-path:url(#SVGID_10_);}
	.st5{clip-path:url(#SVGID_12_);}
	.st6{stroke:#231F20;stroke-width:2;stroke-linecap:round;stroke-linejoin:round;stroke-miterlimit:10;}
</style>
<g>
	<g>
		<path d="M28.7,32H3c-0.5,0-1-0.4-1-1c0-0.5,0.4-1,1-1h25.8c0.5,0,1,0.4,1,1C29.7,31.6,29.3,32,28.7,32z"/>
	</g>
	<g>
		<path d="M16.2,44.3c-0.3,0-0.5-0.1-0.7-0.3c-0.4-0.4-0.4-1,0-1.4l11.8-11.6L15.6,19.5c-0.4-0.4-0.4-1,0-1.4c0.4-0.4,1-0.4,1.4,0
			l12.5,12.3c0.2,0.2,0.3,0.4,0.3,0.7c0,0.3-0.1,0.5-0.3,0.7L16.9,44C16.7,44.2,16.5,44.3,16.2,44.3z"/>
	</g>
	<g>
		<path d="M61,64H20.5c-0.5,0-1-0.4-1-1V48.4c0-0.5,0.4-1,1-1s1,0.4,1,1v13.7h38.6V2H21.5v12c0,0.5-0.4,1-1,1s-1-0.4-1-1V1
			c0-0.5,0.4-1,1-1H61c0.5,0,1,0.4,1,1v62C62,63.6,61.6,64,61,64z"/>
	</g>
	<g>
		<path d="M61,63.9c-0.1,0-0.3,0-0.4-0.1L39.1,54c-0.3-0.2-0.6-0.5-0.6-0.9V10.8c0-0.4,0.2-0.7,0.6-0.9l21.5-9.8
			C60.9,0,61.3,0,61.6,0.2C61.8,0.3,62,0.6,62,1v62c0,0.3-0.2,0.6-0.4,0.8C61.4,63.9,61.2,63.9,61,63.9z M40.5,52.5l19.5,8.9v-59
			l-19.5,8.9V52.5z"/>
	</g>
	<g>
		<path d="M50.3,32h-4.4c-0.5,0-1-0.4-1-1c0-0.5,0.4-1,1-1h4.4c0.5,0,1,0.4,1,1C51.3,31.6,50.8,32,50.3,32z"/>
	</g>
</g>
</svg>
