<?xml version="1.0" encoding="utf-8"?>
<!-- Generator: Adobe Illustrator 21.0.0, SVG Export Plug-In . SVG Version: 6.00 Build 0)  -->
<svg version="1.1" id="Layer_1" xmlns="http://www.w3.org/2000/svg" xmlns:xlink="http://www.w3.org/1999/xlink" x="0px" y="0px"
	 viewBox="0 0 64 64" style="enable-background:new 0 0 64 64;fill:#fff;" xml:space="preserve">
<style type="text/css">
	.st0{clip-path:url(#SVGID_2_);}
	.st1{clip-path:url(#SVGID_4_);}
	.st2{clip-path:url(#SVGID_6_);}
	.st3{clip-path:url(#SVGID_8_);}
	.st4{clip-path:url(#SVGID_10_);}
	.st5{clip-path:url(#SVGID_12_);}
	.st6{stroke:#231F20;stroke-width:2;stroke-linecap:round;stroke-linejoin:round;stroke-miterlimit:10;}
  
</style>
<g>
	<g>
		<path d="M50.2,64c-7.6,0-13.8-6.2-13.8-13.8c0-7.6,6.2-13.8,13.8-13.8c7.6,0,13.8,6.2,13.8,13.8C64,57.8,57.8,64,50.2,64z
			 M50.2,38.3c-6.6,0-11.9,5.3-11.9,11.9c0,6.6,5.3,11.9,11.9,11.9c6.6,0,11.9-5.3,11.9-11.9C62.1,43.6,56.7,38.3,50.2,38.3z"/>
	</g>
	<g>
		<path d="M50.2,57.6c-0.5,0-1-0.4-1-1V43.7c0-0.5,0.4-1,1-1s1,0.4,1,1v12.9C51.2,57.2,50.7,57.6,50.2,57.6z"/>
	</g>
	<g>
		<path d="M56.7,51.1H43.7c-0.5,0-1-0.4-1-1s0.4-1,1-1h12.9c0.5,0,1,0.4,1,1S57.2,51.1,56.7,51.1z"/>
	</g>
	<g>
		<path d="M31.1,53.3H2.8c-1.5,0-2.8-1.3-2.8-2.8V44c0-1.2,0.7-2.2,1.8-2.6c14.6-5.6,17.3-8.1,17.7-8.9v-2c-1.7-1.8-3-4.2-3.8-6.9
			c-1-0.8-1.7-2-1.9-3.3c-0.2-1.3,0.1-2.6,0.9-3.7v-5.5c0-6.9,4.5-11.1,12-11.1c7.6,0,12,4,12,11.1v5.5c0.8,1.1,1.1,2.4,0.9,3.7
			c-0.2,1.3-0.9,2.5-1.9,3.3c-0.8,2.7-2.1,5.1-3.8,6.9v2c0.2,0.4,0.8,0.7,2.4,1.5c0.4,0.2,0.8,0.4,1.3,0.7c0.5,0.2,0.7,0.8,0.4,1.3
			c-0.2,0.5-0.8,0.7-1.3,0.4c-0.5-0.3-0.9-0.5-1.3-0.7c-1.9-1-3-1.5-3.4-2.8c0-0.1,0-0.2,0-0.3v-2.6c0-0.3,0.1-0.5,0.3-0.7
			c1.6-1.7,2.9-4,3.6-6.7c0.1-0.2,0.2-0.4,0.4-0.5c0.7-0.5,1.2-1.3,1.3-2.2c0.1-0.9-0.1-1.8-0.7-2.5c-0.1-0.2-0.2-0.4-0.2-0.6v-5.8
			c0-6-3.5-9.1-10.1-9.1c-6.5,0-10.1,3.2-10.1,9.1v5.8c0,0.2-0.1,0.4-0.2,0.6c-0.6,0.7-0.8,1.6-0.7,2.5c0.1,0.9,0.6,1.7,1.3,2.2
			c0.2,0.1,0.3,0.3,0.4,0.5c0.8,2.7,2,5,3.7,6.7c0.2,0.2,0.3,0.4,0.3,0.7v2.6c0,0.1,0,0.2,0,0.3c-0.5,1.6-3.1,4.2-18.9,10.3
			c-0.3,0.1-0.6,0.5-0.6,0.8v6.5c0,0.5,0.4,0.9,0.9,0.9h28.3c0.5,0,1,0.4,1,1S31.6,53.3,31.1,53.3z"/>
	</g>
</g>
</svg>
